{
    "video": true,
    "testFiles": "**.spec.js",
    "integrationFolder": "./cypress",
    "env":{
      "app_server": "http://127.0.0.1:8080",
      "api_server": "http://127.0.0.1:3000"
    }
  }
  